Datapaper Camtrap - Plots - Plot creation - Camera trap surveys of Atlantic Forest mammals: a dataset for analyses considering imperfect detection (2004-2020)
…
camera_class

# A tibble: 22 × 3
   cameraBrand    n_cameraBrand fig  
   <fct>                  <int> <chr>
 1 Bushnell                3400 A    
 2 Tigrinus                 763 A    
 3 Reconyx                  338 A    
 4 Acorn                    249 A    
 5 Trapa Camera             102 A    
 6 Browning                  82 B    
 7 Moultrie                  72 B    
 8 SunTek                    66 B    
 9 Ecotone                   40 B    
10 Olho-de-coruja            38 B    
# ℹ 12 more rows
…
